-------------------------------------------------------------------------------
Test set: Projeto02.Projeto2.AppTest
-------------------------------------------------------------------------------
Tests run: 1, Failures: 0, Errors: 0, Skipped: 0, Time elapsed: 0.124 s - in Projeto02.Projeto2.AppTest
