C:\Users\biagu\eclipse-workspace\Projeto2\src\main\java\br\com\bianca\projeto02\ConsultarMatricula.java
C:\Users\biagu\eclipse-workspace\Projeto2\src\main\java\br\com\bianca\projeto02\Excluir.java
C:\Users\biagu\eclipse-workspace\Projeto2\src\main\java\interfaces\Cadastro.java
C:\Users\biagu\eclipse-workspace\Projeto2\src\main\java\interfaces\Deletar.java
C:\Users\biagu\eclipse-workspace\Projeto2\src\main\java\br\com\bianca\projeto02\CriaUsuario.java
C:\Users\biagu\eclipse-workspace\Projeto2\src\main\java\br\com\bianca\projeto02\Imprimir.java
C:\Users\biagu\eclipse-workspace\Projeto2\src\main\java\br\com\bianca\projeto02\MenuInicial.java
C:\Users\biagu\eclipse-workspace\Projeto2\src\main\java\interfaces\PainelInicial.java
C:\Users\biagu\eclipse-workspace\Projeto2\src\main\java\br\com\bianca\projeto02\Matricula.java
C:\Users\biagu\eclipse-workspace\Projeto2\src\main\java\br\com\bianca\projeto02\Usuario.java
C:\Users\biagu\eclipse-workspace\Projeto2\src\main\java\br\com\bianca\projeto02\dao\UsuarioDAO.java
C:\Users\biagu\eclipse-workspace\Projeto2\src\main\java\br\com\bianca\projeto02\factory\Conexao.java
